Filter
…
Nicholas Viau

January 16, 2018

filter() takes logical expressions and returns the rows for which all are true. It accepts the standard suite of comparison operations: >, >=, <, <=, != (not equal) and == for equal. Keep in mind that = does not mean equal when using filter. You will get an error.

Basic Operations

Filtering with Character Data

We can filter character data in a similar yet slightly different manner.

filter(flights, carrier == "UA", dest == "MIA")

## # A tibble: 1,565 x 19
##     year month   day dep_time sched_dep_time dep_delay arr_time
##    <int> <int> <int>    <int>          <int>     <dbl>    <int>
##  1  2013     1     1      607            607      0         858
##  2  2013     1     1      904            906    - 2.00     1207
##  3  2013     1     1      912            906      6.00     1219
##  4  2013     1     1     1302           1300      2.00     1553
##  5  2013     1     1     1549           1548      1.00     1851
##  6  2013     1     1     2003           2000      3.00     2302
##  7  2013     1     2      559            600    - 1.00      906
##  8  2013     1     2     1258           1300    - 2.00     1557
##  9  2013     1     2     1557           1529     28.0      1853
## 10  2013     1     2     2004           1955      9.00     2308
## # ... with 1,555 more rows, and 12 more variables: sched_arr_time <int>,
## #   arr_delay <dbl>, carrier <chr>, flight <int>, tailnum <chr>,
## #   origin <chr>, dest <chr>, air_time <dbl>, distance <dbl>, hour <dbl>,
## #   minute <dbl>, time_hour <dttm>

Keep in mind that filter is case sensitive. If you’re unsure about the case of certain characters you can use grepl():

filter(flights, grepl("ua", carrier, ignore.case = TRUE))

## # A tibble: 58,665 x 19
##     year month   day dep_time sched_dep_time dep_delay arr_time
##    <int> <int> <int>    <int>          <int>     <dbl>    <int>
##  1  2013     1     1      517            515      2.00      830
##  2  2013     1     1      533            529      4.00      850
##  3  2013     1     1      554            558    - 4.00      740
##  4  2013     1     1      558            600    - 2.00      924
##  5  2013     1     1      558            600    - 2.00      923
##  6  2013     1     1      559            600    - 1.00      854
##  7  2013     1     1      607            607      0         858
##  8  2013     1     1      611            600     11.0       945
##  9  2013     1     1      623            627    - 4.00      933
## 10  2013     1     1      628            630    - 2.00     1016
## # ... with 58,655 more rows, and 12 more variables: sched_arr_time <int>,
## #   arr_delay <dbl>, carrier <chr>, flight <int>, tailnum <chr>,
## #   origin <chr>, dest <chr>, air_time <dbl>, distance <dbl>, hour <dbl>,
## #   minute <dbl>, time_hour <dttm>

# Or in a pipe...
flights %>% filter(grepl("ua", carrier, ignore.case = TRUE))

## # A tibble: 58,665 x 19
##     year month   day dep_time sched_dep_time dep_delay arr_time
##    <int> <int> <int>    <int>          <int>     <dbl>    <int>
##  1  2013     1     1      517            515      2.00      830
##  2  2013     1     1      533            529      4.00      850
##  3  2013     1     1      554            558    - 4.00      740
##  4  2013     1     1      558            600    - 2.00      924
##  5  2013     1     1      558            600    - 2.00      923
##  6  2013     1     1      559            600    - 1.00      854
##  7  2013     1     1      607            607      0         858
##  8  2013     1     1      611            600     11.0       945
##  9  2013     1     1      623            627    - 4.00      933
## 10  2013     1     1      628            630    - 2.00     1016
## # ... with 58,655 more rows, and 12 more variables: sched_arr_time <int>,
## #   arr_delay <dbl>, carrier <chr>, flight <int>, tailnum <chr>,
## #   origin <chr>, dest <chr>, air_time <dbl>, distance <dbl>, hour <dbl>,
## #   minute <dbl>, time_hour <dttm>
…
